15|sales|+1000|senior|0
16|techies|+1000|junior|0
17|medical|+2500|senior|1
18|techies|+2000|senior|1
19|sales|+500|junior|0
20|medical|+2000|junior|0
21|techies|+2000|senior|1
22|clean|+1000|junior|0
23|clean|+1000|junior|0
25|sales|+1000|junior|0
24|medical|+2000|junior|0
26|medical|+2000|senior|1
27|technies|+2000|senior|1
28|sales|+500|junior|0
29|stage security|+1500|junior|0
30|camp security|+1500|junior|0
31|medical|+2000|junior|0
32|medical|+2000|senior|1
33|technies|+2000|senior|1
34|sales|+500|junior|0
35|stage security|+1500|junior|0
36|camp security|+1500|junior|0
39|sales|+1500|senior|0
40|sales|+1501|junior|0
