3|Armin van Buuren|Armin van Buuren|1|2|Turn Up the bass|#TurnItUp|+170000
5|Babastars|Getoar Selimi, Visar Shala, Agon Sylejmani, Ylber Abdullahu|1|1||#Boyaaah|+54000
6|AC/DC|Brian Johnson, Malcolm Young, Phil Rudd, Angus Young, Cliff Williams|1|3|Lead guitar main profile|#peaceandlove|+190000
8|Kendrick Lamar|Kendrick Lamar|0|3|Bass player to the front|#Bitchwheresyou?|+165000
11|J-Cole|Jermaine Lamarr Cole|0|2||#Apparently|+120000
12|Scorpions|Klaus Meine, Rudolf Schenker, Matthias Jabs, Paweł Mąciwoda, James Kottak|1|2|Turn Up the bass|#Hurricane|+170000
13|Iron Maiden|Bruce Dickinson, Dave Murray, Adrian Smith, Janick Gers, Steve Harris, Nicko McBrain|1|1||#FearOfTheDark|+54000
14|Nightwish|Floor Jansen, Emppu Vuorinen, Marco Hietala, Tuomas Holopainen,Troy Donockley, Jukka Nevalainen|1|3|Lead guitar main profile|#EndlessFormsMostBeautiful|+190000
15|Bon Jovi|Jon Bon Jovi, David Bryan, 	Tico Torres|0|3|Bass player to the front|#BurningBridges|+165000
16|Metallica|James Hetfield, Kirk Hammett, Robert Trujillo, Lars Ulrich|0|2||#MasterofPuppets|+120000
