1|EastSide|0|48|+1798|12
2|Freshfoods|0|36|+1399|13
3|EntryLevel|0|78|+1478|14
4|Red Bull|1|42|+1698|16
5|FoodsnMore|1|48|+1987|17
6|DisunDas|0|79|+3257|18
7|Heineken|1|42|+7412|19
8|BeernMore|1|48|+1987|20
9|Tshirts|0|79|+3257|21
10|WestSide|1|42|+7412|22