1|weekend|2016-06-03|concert|0|1|1|50|'2015-10-19 10:23:54'
2|weekend|2016-06-03|both|0|3|2|80|'2015-11-22 08:33:19'
3|sunday|2016-06-05|camping|0|10|3|25|'2015-11-23 10:22:54'
4|weekend|2016-06-03|both|0|13|4|80|'2015-11-24 10:22:54'
5|saturday|2016-06-04|both|1|16|5|80|'2015-11-26 10:22:58'
6|weekend|2016-06-03|camping|0|18|6|60|'2015-11-28 10:23:53'
7|saturday|2016-06-04|concert|1|20||50|'2015-12-08 10:28:55'
8|friday|2016-06-03|camping|1|5||50|'2016-04-18 12:26:24'
9|saturday|2016-06-04|concert|1|5|7|50|'2016-04-18 12:26:24'
10|friday|2016-06-03|both|0|10|8|35|'2016-05-07 10:27:54'
11|sunday|2016-06-05|concert|0|13|9|25|'2016-05-23 10:29:54'
12|weekend|2016-06-03|camping|1|13|10|120|'2016-06-02 09:58:27'
13|saturday|2016-06-04|concert|1|5|7|50|'2016-04-25 13:12:24'
14|friday|2016-06-03|both|0|10|8|35|'2016-05-25 10:45:12'
15|sunday|2016-06-05|concert|0|13|9|25|'2016-05-30 14:29:23'
16|weekend|2016-06-03|camping|1|13|10|120|'2016-05-02 09:45:27'
17|weekend|2016-06-03|both|1|13|37|120|'2016-05-02 09:45:27'
